…
``` r
mae(lm_title_evaluation, truth = Actual, estimate = Predicted)
```

    ## # A tibble: 1 × 3
    ##   .metric .estimator .estimate
    ##   <chr>   <chr>          <dbl>
    ## 1 mae     standard      0.0975

``` r
tidy(linear_title)
```

    ## # A tibble: 31 × 5
    ##    term                 estimate    std.error statistic   p.value
    ##    <chr>                   <dbl>        <dbl>     <dbl>     <dbl>
    ##  1 (Intercept)      0.0128        0.00752        1.70    8.97e- 2
    ##  2 Facebook         0.0000000658  0.000000961    0.0685  9.45e- 1
    ##  3 GooglePlus      -0.000119      0.0000343     -3.46    5.49e- 4
    ##  4 LinkedIn        -0.00000660    0.00000739    -0.893   3.72e- 1
    ##  5 titleWC         -0.00249       0.000249     -10.0     1.39e-23
    ##  6 headlineWC      -0.0000631     0.0000480     -1.31    1.89e- 1
    ##  7 Topic_economy    0.00892       0.00209        4.26    2.03e- 5
    ##  8 Topic_microsoft  0.0222        0.00223        9.97    2.06e-23
    ##  9 Topic_obama      0.0187        0.00213        8.78    1.75e-18
    ## 10 Topic_palestine NA            NA             NA      NA       
    ## # ℹ 21 more rows
…
``` r
mae(lm_HL_evaluation, truth = Actual, estimate = Prediction)
```

    ## # A tibble: 1 × 3
    ##   .metric .estimator .estimate
    ##   <chr>   <chr>          <dbl>
    ## 1 mae     standard       0.108

``` r
tidy(linear_HL)
```

    ## # A tibble: 31 × 5
    ##    term               estimate    std.error statistic   p.value
    ##    <chr>                 <dbl>        <dbl>     <dbl>     <dbl>
    ##  1 (Intercept)     -0.00815     0.00769        -1.06   2.89e- 1
    ##  2 Facebook        -0.00000173  0.000000975    -1.78   7.57e- 2
    ##  3 GooglePlus      -0.0000550   0.0000344      -1.60   1.10e- 1
    ##  4 LinkedIn        -0.00000963  0.00000772     -1.25   2.12e- 1
    ##  5 titleWC         -0.000234    0.000258       -0.905  3.65e- 1
    ##  6 headlineWC      -0.000746    0.0000495     -15.1    3.43e-51
    ##  7 Topic_economy    0.00695     0.00218         3.19   1.41e- 3
    ##  8 Topic_microsoft  0.0343      0.00231        14.8    9.69e-50
    ##  9 Topic_obama      0.0295      0.00221        13.4    9.88e-41
    ## 10 Topic_palestine NA          NA              NA     NA       
    ## # ℹ 21 more rows
…
``` r
mae(lm_title_evaluation, truth = Actual, estimate = Predicted)
```

    ## # A tibble: 1 × 3
    ##   .metric .estimator .estimate
    ##   <chr>   <chr>          <dbl>
    ## 1 mae     standard      0.0972

``` r
tidy(linear_title)
```

    ## # A tibble: 32 × 5
    ##    term                  estimate  std.error statistic  p.value
    ##    <chr>                    <dbl>      <dbl>     <dbl>    <dbl>
    ##  1 (Intercept)        0.00914     0.00732       1.25   2.12e- 1
    ##  2 SentimentHeadline  0.171       0.00385      44.5    0       
    ##  3 Facebook          -0.000000498 0.00000112   -0.445  6.56e- 1
    ##  4 GooglePlus        -0.0000606   0.0000341    -1.78   7.57e- 2
    ##  5 LinkedIn          -0.00000444  0.00000681   -0.652  5.14e- 1
    ##  6 titleWC           -0.00245     0.000245     -9.99   1.77e-23
    ##  7 headlineWC         0.00000446  0.0000473     0.0942 9.25e- 1
    ##  8 Topic_economy      0.00882     0.00206       4.28   1.88e- 5
    ##  9 Topic_microsoft    0.0188      0.00220       8.55   1.30e-17
    ## 10 Topic_obama        0.0156      0.00210       7.42   1.15e-13
    ## # ℹ 22 more rows
…
``` r
mae(lm_HL_evaluation, truth = Actual, estimate = Prediction)
```

    ## # A tibble: 1 × 3
    ##   .metric .estimator .estimate
    ##   <chr>   <chr>          <dbl>
    ## 1 mae     standard       0.107

``` r
tidy(linear_HL)
```

    ## # A tibble: 32 × 5
    ##    term                estimate  std.error statistic  p.value
    ##    <chr>                  <dbl>      <dbl>     <dbl>    <dbl>
    ##  1 (Intercept)     -0.00102     0.00748       -0.137 8.91e- 1
    ##  2 SentimentTitle   0.180       0.00412       43.6   0       
    ##  3 Facebook        -0.000000711 0.00000100    -0.709 4.78e- 1
    ##  4 GooglePlus      -0.0000290   0.0000344     -0.844 3.99e- 1
    ##  5 LinkedIn        -0.00000625  0.00000688    -0.909 3.64e- 1
    ##  6 titleWC          0.0000712   0.000254       0.281 7.79e- 1
    ##  7 headlineWC      -0.000809    0.0000487    -16.6   1.00e-61
    ##  8 Topic_economy    0.00454     0.00213        2.13  3.33e- 2
    ##  9 Topic_microsoft  0.0276      0.00227       12.2   5.96e-34
    ## 10 Topic_obama      0.0250      0.00217       11.6   7.41e-31
    ## # ℹ 22 more rows
…
